<svg height="100%" width="100%" xmlns="http://www.w3.org/2000/svg" viewBox="0 0 357.51 490" aria-describedby="illustration-selfie" role="img">
	<title id="illustration-selfie">Selfie illustration</title>
	<g class="icon-selfie">
		<path class="skin-light" fill="#ffe6f0" d="M240.78,461.79s61-27.45,70.14-73.19,27.45-100.64-3.05-122S51.7,236.12,48.65,260.51,60.85,376.4,94.39,416.05,201.13,470.94,240.78,461.79Z"/>
		<path class="hair" fill="#bea5aa" d="M92.63,302.06C68.23,411.84,34.69,454.54,34.69,454.54s61-51.85,82.34-137.24"/>
		<path class="skin-dark" fill="#f5c2be" d="M245.52,459.45C65.18,539.93,47.92,337,47.92,337c-10.18-13.63-20.59-34.32-8-39.6,26-11,34.45-7.57,92.4,4.63,29.84,6.28,8.34,82.08-8.13,101.66C89.26,455.58,316.71,341.31,245.52,459.45Z"/>
		<path class="mouth" fill="#ff7a9e" d="M116.75,442.48s75.52,38.91,121-20.62c0,0-17.77,9.56-54,16.22C166.6,439.92,143.44,438.23,116.75,442.48Z"/>
		<path fill="#14234b" d="M91.54,322.39c-12.23-.32-19.17,6.84-19.55,21.52-.33,12.24,3.64,24.58,18.32,25,12.23.33,19.23-9.28,19.56-21.52S103.77,322.72,91.54,322.39Z"/>
		<path fill="#14234b" d="M239.93,318.15c-12.23-.39-19.21,6.74-19.67,21.42-.39,12.23,3.51,24.6,18.18,25.06,12.24.39,19.29-9.18,19.68-21.41S252.16,318.54,239.93,318.15Z"/>
		<path class="hat-light" fill="#5e7b9d" d="M59.08,289.86c76.34-1.91,169,9.76,219.58,18.3,20.46,3.45,42.7,9.14,51.73,28.27,2,4.33,5.93.35,5.51-4.41-1.06-11.92,3.75-47.36,18.09-80.88,7.22-16.87-12.65-14.41-10.94-21.19C354.9,183.12,224.18-39.87,171.92,6.24,120.08,52,117,109.93,77.38,155.67Z"/>
		<path class="hat-shadow" fill="#5a6377" d="M24.79,214c1.75-.88,13,2.72,17.2-54.46,8-107,76.4-93.64,104.43-128C171.92.14,187.17.14,187.17.14c-12.2,3.05-9.15,42.7-39.65,61S96.4,174.32,114,177c118.94,18.3,178.7,41.91,178.7,41.91S141.43,164.82,86.53,192.27c-6.1,3-24.63,54.18-15.25,82.34,3,9.15,9.15,12.2,15.85,12.93,1.45.16,1,2.32-.47,2.32-24.53,0-52,4.78-52,24.39,0,0-5.18,15.12-5.64-6.16a328.92,328.92,0,0,0-9.62-70.44C16.49,225.72,22,215.36,24.79,214Z"/>
		<path class="skin-dark" fill="#f5c2be" d="M310.68,369.82c3.47-14.46,3.37-26.87,16.67-33.53,18-9,43.46-13.13,21.94,42.35-9.33,24.05-26.05,36.59-36.81,40-9.28,3-15-1.91-13.21-11.49.58-3.09,4.44-9.8,5.57-14.12C307.37,383.34,309.27,375.73,310.68,369.82Z"/>
		<path class="hair" fill="#bea5aa" d="M334.87,333c-1.75,18.05-4.1,25.65-4.1,25.65S312.21,430.14,233.22,490c0,0,66.26-59.88,69.73-115.68,1.43-23,2.9-44.35,4.82-51.7,1.39-5.32,10.54.78,10.54.78C324.4,326.45,334.87,333,334.87,333Z"/>
		<path class="glasses" fill="#ee6366" d="M335,340l1.65-7.48-43.16-28.14s-47.31-11.83-74.18-10.2c-24.29,3.93-29,6.67-40.64,17.19-11.77,8.07-7,5.33-11.92,5.63s-9.92-1.85-22.14-1.11-17,3.49-21.84,3.79c-2.44.15.15,2.44-12.66-6.59C94.9,304.16,90,304.46,65.43,303.5,41,305-4.52,322.48.36,322.18l.75,12.21s2.59,2.3,5,2.15,5.33,7,5.33,7c.6,9.77,11.2,63.07,62.51,59.95,58.63-3.57,57.2-67.24,57.2-67.24a7.58,7.58,0,0,1-2.74-4.74c-.59-9.77,18.95-11,18.95-11s19.55-1.19,20.14,8.58c0,0,.3,4.89-2.14,5,0,0,6.31,63.37,64.94,59.8,51.31-3.12,53.07-54.73,54.77-67.09,0,0,2-7.48,4.44-7.63,4.88-.29,4.73-2.74,4.73-2.74Zm-159.58-1.46c-2.09-34.2,46.78-37.18,46.78-37.18s51.3-3.12,53.38,31.08c-1.61,54.05-48.33,52-48.33,52C205.31,385.72,180,372.54,175.46,338.49ZM19.1,348C14.58,314,68.32,310.68,68.32,310.68s51.31-3.12,51,31.23-26.34,50.65-45.89,51.84C73.38,393.75,27.26,401.46,19.1,348Z"/>
	</g>
</svg>