<svg height="100%" width="100%" xmlns="http://www.w3.org/2000/svg" viewBox="0 0 357.51 490" aria-describedby="illustration-clippath" role="img">
	<title id="illustration-clippath">X-ray effect</title>
	<defs>
		<clipPath id="maskExample">
			<circle cx="48%" cy="82%" r="15%"/>
		</clipPath>
	</defs>
	<path class="skin-light" fill="#ffe6f0" d="M240.78,461.79s61-27.45,70.14-73.19,27.45-100.64-3.05-122S51.7,236.12,48.65,260.51,60.85,376.4,94.39,416.05,201.13,470.94,240.78,461.79Z"/>
	<path class="hair" fill="#bea5aa" d="M92.63,302.06C68.23,411.84,34.69,454.54,34.69,454.54s61-51.85,82.34-137.24"/>
	<path class="skin-dark" fill="#f5c2be" d="M245.52,459.45C65.18,539.93,47.92,337,47.92,337c-10.18-13.63-20.59-34.32-8-39.6,26-11,34.45-7.57,92.4,4.63,29.84,6.28,8.34,82.08-8.13,101.66C89.26,455.58,316.71,341.31,245.52,459.45Z"/>
	<path class="mouth" fill="#ff7a9e" d="M116.75,442.48s75.52,38.91,121-20.62c0,0-17.77,9.56-54,16.22C166.6,439.92,143.44,438.23,116.75,442.48Z"/>
	<path fill="#14234b" d="M91.54,322.39c-12.23-.32-19.17,6.84-19.55,21.52-.33,12.24,3.64,24.58,18.32,25,12.23.33,19.23-9.28,19.56-21.52S103.77,322.72,91.54,322.39Z"/>
	<path fill="#14234b" d="M239.93,318.15c-12.23-.39-19.21,6.74-19.67,21.42-.39,12.23,3.51,24.6,18.18,25.06,12.24.39,19.29-9.18,19.68-21.41S252.16,318.54,239.93,318.15Z"/>
	<path class="hat-light" fill="#5e7b9d" d="M59.08,289.86c76.34-1.91,169,9.76,219.58,18.3,20.46,3.45,42.7,9.14,51.73,28.27,2,4.33,5.93.35,5.51-4.41-1.06-11.92,3.75-47.36,18.09-80.88,7.22-16.87-12.65-14.41-10.94-21.19C354.9,183.12,224.18-39.87,171.92,6.24,120.08,52,117,109.93,77.38,155.67Z"/>
	<path class="hat-shadow" fill="#5a6377" d="M24.79,214c1.75-.88,13,2.72,17.2-54.46,8-107,76.4-93.64,104.43-128C171.92.14,187.17.14,187.17.14c-12.2,3.05-9.15,42.7-39.65,61S96.4,174.32,114,177c118.94,18.3,178.7,41.91,178.7,41.91S141.43,164.82,86.53,192.27c-6.1,3-24.63,54.18-15.25,82.34,3,9.15,9.15,12.2,15.85,12.93,1.45.16,1,2.32-.47,2.32-24.53,0-52,4.78-52,24.39,0,0-5.18,15.12-5.64-6.16a328.92,328.92,0,0,0-9.62-70.44C16.49,225.72,22,215.36,24.79,214Z"/>
	<path class="skin-dark" fill="#f5c2be" d="M310.68,369.82c3.47-14.46,3.37-26.87,16.67-33.53,18-9,43.46-13.13,21.94,42.35-9.33,24.05-26.05,36.59-36.81,40-9.28,3-15-1.91-13.21-11.49.58-3.09,4.44-9.8,5.57-14.12C307.37,383.34,309.27,375.73,310.68,369.82Z"/>
	<path class="hair" fill="#bea5aa" d="M334.87,333c-1.75,18.05-4.1,25.65-4.1,25.65S312.21,430.14,233.22,490c0,0,66.26-59.88,69.73-115.68,1.43-23,2.9-44.35,4.82-51.7,1.39-5.32,10.54.78,10.54.78C324.4,326.45,334.87,333,334.87,333Z"/>
	<path class="glasses" fill="#ee6366" d="M335,340l1.65-7.48-43.16-28.14s-47.31-11.83-74.18-10.2c-24.29,3.93-29,6.67-40.64,17.19-11.77,8.07-7,5.33-11.92,5.63s-9.92-1.85-22.14-1.11-17,3.49-21.84,3.79c-2.44.15.15,2.44-12.66-6.59C94.9,304.16,90,304.46,65.43,303.5,41,305-4.52,322.48.36,322.18l.75,12.21s2.59,2.3,5,2.15,5.33,7,5.33,7c.6,9.77,11.2,63.07,62.51,59.95,58.63-3.57,57.2-67.24,57.2-67.24a7.58,7.58,0,0,1-2.74-4.74c-.59-9.77,18.95-11,18.95-11s19.55-1.19,20.14,8.58c0,0,.3,4.89-2.14,5,0,0,6.31,63.37,64.94,59.8,51.31-3.12,53.07-54.73,54.77-67.09,0,0,2-7.48,4.44-7.63,4.88-.29,4.73-2.74,4.73-2.74Zm-159.58-1.46c-2.09-34.2,46.78-37.18,46.78-37.18s51.3-3.12,53.38,31.08c-1.61,54.05-48.33,52-48.33,52C205.31,385.72,180,372.54,175.46,338.49ZM19.1,348C14.58,314,68.32,310.68,68.32,310.68s51.31-3.12,51,31.23-26.34,50.65-45.89,51.84C73.38,393.75,27.26,401.46,19.1,348Z"/>
	<g clip-path="url(#maskExample)">
		<rect class="x-ray-fill" x="-12.88" y="-12" width="384" height="514"/>
		<path class="bone-shadow"  d="M86.75,399.64s164.92-5.36,174.14,0S264.12,438,243.12,446s-115,25.07-122.5,15S77.39,403.28,86.75,399.64Z"/>
		<path class="bone-dark" d="M313.39,368.88S293.12,375,291.12,376s-13.11,3-27.06,28.5c0,0-11.16,15.06-15.12,16.05-6.18,1.55-5.82,12.45-5.82,12.45,2,2,1,4-3.86,7.4s-6.14,3.6-9.14,2.6-5-7-8-1a27.74,27.74,0,0,1-8.56,9.64c-2.55.65-4.44-2.64-5.44-3.64a7.25,7.25,0,0,0-1.84-1.39c-2.84,4.6-9.16,5.39-11.16,5.39s-8-6-9-4-6,5-10,6c-2.26.56-5.16-1.42-7.61-3.26-1.49,3.15-1.34,7.44,3.05,13.07,1.35-.06,3.22.05,7.2.19,13.86.5,49.86.5,62.86-7.5s29-22,37-40c0,0,19.5-32.5,42.5-38.5C321.12,378,330.86,370.69,313.39,368.88Z"/>
		<path class="bone-mid" d="M168.51,450.74c-1.89-1.41-3.52-2.74-4.39-2.74-2,0-4,5-12.42,6.37s-7.58-6.37-8.56-7.35-1,0-1,0c-2,7-5,8-8,9-2.13.71-4-6-4-6a11,11,0,0,1-3.52,7.15C123.12,460,117.12,442,117.12,442c-9-7-11-2-15.62-.61.44.81.82,1.52,1.12,2.11,3,6,14.29,31.25,44.14,25.62,21.3-4,21.44-5.16,24.8-5.31C167.17,458.18,167,453.89,168.51,450.74Z"/>
		<path class="bone-shadow" d="M112.94,446.44a13.69,13.69,0,0,1-.85-2.13c0,.3-9-23.31-9-23.31s-28-27-31-31-12.3-7.44-12.3-7.44,3.8,6.94,4.8,11.94,12,9,18,17C88,418.71,97.49,434,101.5,441.39,106.69,446.09,110.51,446.8,112.94,446.44Z"/>
		<path class="bone-teeth-lower" d="M244,424.94c-.72.05-20.78,3.49-20.78,3.49.13.91-.3,7.22.82,8.23s7.09,6.46,10,4.65,2.29-2.43,5.31-3.48,5.5-2.84,5.62-4.21S244.73,424.89,244,424.94Z"/>
		<path class="bone-teeth-lower" d="M142.71,436.62s.21,14.21,6.93,15,6.72-.08,9.43-2.8,3-8.08,2.87-13.55C161.94,435.29,142.66,434.36,142.71,436.62Z"/>
		<path class="bone-teeth-lower" d="M217.64,431.43c-2.72-12.69-12.06-.41-12.06-.41s0,.16,0,.43l-17.43,1.14s-.44,10.34.83,11.43,5,6.44,9.52,5.54c3.78-.76,7.65-2.66,8.55-7.27.57,2,1.35,3.74,2.42,4.55,3.63,2.72,3.63,3.62,6.34.9S220.36,444.12,217.64,431.43Z"/>
		<path class="bone-teeth-lower" d="M165.75,434.7c.05,1,.86,5.86,1.76,10.78s6.35,6.89,8.16,6.89,6.34-2.95,8.15-4.92S185,434.7,185,434.7,165.7,433.67,165.75,434.7Z"/>
		<path class="bone-teeth-lower" d="M140.71,435.93c-.59-5.93-9.59.07-14.41,3-1.18,1-4.18-2-4.18-2-.72-.71-3,3-1.8,10.25,1.15,6.22,4.86,9.69,5.8,8.75s4,0,2.25-16.41c.4.63,1.85,11.23,2.4,11.78,5.46,5.44,6.49.91,7.34,0S142,448.65,140.71,435.93Z"/>
		<path class="bone-teeth-lower" d="M119.12,446l-4.53-12.37-2.38-.12s-3.53,1.54-3.09,3.49C111.12,446,119.12,446,119.12,446Z"/>
		<path class="bone-teeth-shadow" d="M107.9,433.79s116,1.11,133.11-10.34c0,0,9.11,5.55-.57,8.29C229.1,434.94,111.12,452,107.9,433.79Z"/>
		<path class="bone-light" d="M152.62,419.5c-7-1.76-8.89,3.69-9.23,8.5a42.72,42.72,0,0,0,.71,6.69c1,4,5,4,6,4s15,0,15-3c0-1.41,0-4.34-.21-7.59l-1.7.14A16.06,16.06,0,0,0,152.62,419.5Z"/>
		<path class="bone" d="M142.72,429.84c-2.78-8.33-10.54-10.91-13.1-8.34-1.75,1.75-1.8,5.86-1.54,9-1.65-5.91-6.63-8-7.46-8.11s-.31,6.68-.09,9.19l-.48,0c-1.83-2.49-6.68-7.23-8.43-8.11-2-1-.5,7.5-.5,7.5-.76-4.5-3.76-7.19-5.21-7.75.42,4.39,1.85,10.51,6.54,10.46a14.44,14.44,0,0,0,4.29,5s3,2.69,5-3.85c.11.28.21.56.32.85,0,0,2.72,4.51,7.28-.2.43,1.21,1,2,1.72,2.2,4,1,11,1,12-2a24.32,24.32,0,0,0,.26-7.18c0,.44,0,.87,0,1.28Z"/>
		<path class="bone-light" d="M244.62,418.5c-7.14,1.58-9.87,5.67-10.69,7.3l-.22-.15c.64-6.13-2.09-6.15-2.09-6.15-2.3,0-5,1.9-7.28,3.95l-3,.24-.7.5c0-.16,0-.29,0-.45l-.88.07c-.35-6.61-3.12-7.31-3.12-7.31-5.91,0-8.55,5.45-9.52,8.3l-.56.05c-.69-7.35-5.92-7.35-5.92-7.35a12.59,12.59,0,0,0-11.19,8.68l-.58.05c-.28-3.18-2.26-7.49-11.07-7.07-6.86.33-9.91,4.6-11.24,8.82l-.87.06c0,3.59,0,6.84.43,7.65,1,2,4,2,5,2s18,1,18-2c0-.57,0-1.77-.11-3.32.66,2,1.64,3.32,3.11,3.32,6,0,13,1,14-3a14.59,14.59,0,0,0,.3-1.72c1.26,1.3,4.26,4.57,8.16,2.72,2.42-1.15,4.14-1.31,5-4.64a2.77,2.77,0,0,0,.56,1.3c2,2.34,3,4.34,9,1.34a8.12,8.12,0,0,0,3.8-4.86,1.42,1.42,0,0,0,.2.86c1,1,9,1,11-1a4.2,4.2,0,0,0,.84-1.53,7.36,7.36,0,0,0,5.16-.47c1.17-.58,2-3.87,2.48-6.92C251.49,417.5,249.25,417.47,244.62,418.5Z"/>
		<path class="bone-void" d="M108.12,286c17.31,5.77,33,8,31,37s2,90-51,77-21-101-21-101S105.12,285,108.12,286Z"/>
		<path class="bone-void" d="M244.36,269c22.73,6.61,51.21,19.48,48.59,52.7s-3.63,92.11-73.23,77.22-31.83-97.84-31.83-97.84S240.42,267.88,244.36,269Z"/>
		<path class="bone-shadow" d="M247.8,384.33C209.12,361,223.51,308.56,236.12,301c25-15,68,15,54-6-6.13-9.19-90.71-73.72-110-1C154.12,392,260.93,392.25,247.8,384.33Z"/>
		<path class="bone-void" d="M163.3,409.29c33.19-.71,8.82-46.29-5.18-46.29C156.12,363,130.12,410,163.3,409.29Z"/>
		<path class="bone-shadow" d="M121.12,287c-25.33-12.47-54-3-66.58,31.89s32.21,73.4,32.21,73.4,6.46,11.84-.55-2.18C65,347.68,92,307.06,115.5,304.34c11.62-1.34,19.19-9.81,19.19-9.81Z"/>
		<path class="bone" d="M322.62,304.5c0-14-17-80-23-95s-72-39-94.5-39.5c-15-.33-94,5-112,18s-30,38-35,60,5.2,37.86-1.15,45.18.65,76.32-.35,77.32,2,14,5,16,7.15,2.26,8.07,3.13c2,1.91,3,3.94,3.93,4.87,6,6,1,6,19,15,0,0,1.85,1.09,6,8a11,11,0,0,0,5.37,4.44c2.22,1,4.44,1.59,5.89,3,0,0-.26-3.4,3.74-.4s6,3,6,3-2.19-11.81,1.4-7.9,4.6,5.9,5.6,5.9,0-9,6-7,8,6,9,6,0-7,9-7,12,5,13,6,1-1,2-2,6-6,11-6,9,2,11,5c0,0,0,2,2,0s10-11,16-1c0,0,.78,2.85,3,0,3.5-4.5,12.5-8.5,12,4.24l.47,0,.68-.05c3.53-2.46,11.31-8.65,12.81-4.15,0,0,0,2,4,0s8-4,14-2a4.86,4.86,0,0,0,1.53-.37c1.15-3.34,1.48-16.9-6.53-11.63,17.5-11.5,51.5-24.5,73-33C323.4,371.4,322.62,318.5,322.62,304.5Zm-166,79c2-7-1-9,1.5-10.11a11.79,11.79,0,0,1,5.5-.89c1,0,1-.39,2-.29,3,.29,2,5.29,4.75,11.11s7.28,17.18,1,19.57-5.74-5.39-14.74-.39S154.62,390.5,156.62,383.5Zm-75,4c-6-2-34-19-25-62s40-38,40-38c12,0,20.57.68,20.57.68,29.58,18.68,25.43,44.32,16.6,80.32S87.62,389.5,81.62,387.5ZM248.51,377c-32.6,14-39.39,1-45.39-3s-29-49-14-74.85S230.3,269,240,271.1c46.9,10.1,47.11,32.9,48.11,49.9S281.12,363,248.51,377Z"/>
		<path class="bone-shadow" d="M52.83,296.93s17.27-8.43,23.8-25.12C78.12,268,62.12,229,79.72,201.25,79.72,201.25,47.12,234,52.83,296.93Z"/>
		<path class="bone-dark" d="M149.12,365c1.67-3.76,5.46-19.12,1.56-35.65-3.25-13.79-11.69-31.86-18.36-38.07,1.52-1.32-48.2-33.28-56.69-18.47S52,297.18,52,297.18c-5.15,7.18-3.85,9.82-5.08,20.93s3.48,15.74,3.48,15.74A8.3,8.3,0,0,0,58.54,327c1.43-7-1.42-31,35-37.66,19.86-3.64,28.34,1.06,32.8,6.16,1.37,3.07,7.66,12.33,9.82,19.52,5,16.53,0,39-3.5,49.5-8.75,26.24-20.17,34.74-50.71,26.79C73.12,389,62.56,377.38,57,369.54a1.94,1.94,0,0,1-.42,1c-1,1,2,14,5,16s7.15,2.26,8.07,3.13c2,1.91,3,3.94,3.93,4.87,6,6,1,6,19,15,0,0,1.85,1.09,6,8a11,11,0,0,0,5.37,4.44c-1.1-2,3.48-3.82,11.63-5.5a15.81,15.81,0,0,1-.13-7.14C116.87,403.6,145.12,374,149.12,365Z"/>
		<path class="bone-mid" d="M188.26,421s-1.14-6-12.14-6c0,0-8.37-.7-10.63-4.67a4.32,4.32,0,0,1-.51-2.84c1.14-7.49-6.86-5.49-6.86-5.49-8.42,3.92-4.29-11-7.47-5.21-4.25,7.74-2.72,12.31-2.46,15.15.14,1.48-.08,2.5-1.65,3.25C142,417.38,141.2,421,141.2,421c-12.92-11-15.38,1.34-15.38,1.34-7.29-10.67-8.63-1.34-8.63-1.34a21.17,21.17,0,0,1-1.57-4.56c-8.15,1.68-12.73,3.53-11.63,5.5,2.22,1,4.44,1.59,5.89,3,0,0-.26-3.4,3.74-.4s6,3,6,3-2.19-11.81,1.4-7.9,4.6,5.9,5.6,5.9,0-9,6-7,8,6,9,6,0-7,9-7c6,0,9.3,2.21,11.16,4,0,0,1.34,2.52,2.34,2.52s4-8,13-8,10,6,11,6,6-7,12-7C200.12,415,198.41,412,188.26,421Z"/>
		<path class="bone-shadow" d="M115.22,415.49c.9-9.49,12.21-22.49,14.05-24.49a48.48,48.48,0,0,0,3.85-5s-20,16-45,12c-2.67,0,9,3,14,6S114.92,418.6,115.22,415.49Z"/>
		<path class="bone-dark" d="M236.12,386c-12,2,1.06,2.77,17,1,9-1,26-16,36.89-29,9.31-11.1,4.76-49.88,2.43-46.94l-8.09,45.07Z"/>
		<path class="bone-shadow" d="M255.12,417.62s14-19.62,22.22-24.78C293.42,382.75,321.12,378,323.12,377s4.1-7.41,0-7c-10,1-13-2-19-1s-32,16-44.54,23.89c-6.85,4.3-45.46,2.11-65.46-16.89,0,0,28,23,26.5,38.11,0,0,.5,7.89,13.5,2.39a4.66,4.66,0,0,1,2,1.95c1,1.55,14.69-5.45,19.32-1.95"/>
		<path class="bone-light" d="M292.33,309s-1.74-13-4.13,2c-2.08,13,4.92,45-40.58,66.53,0,0-31.3,14.76-49.65-10.62,0,0-19.85-29.88-11.81-67,0,0-13.83,5.83-14.94,16s-1.39,47-.25,56.09,7.23,34.35,6.69,37.71c0,0-.89,4.44,2.28,4.9a20.3,20.3,0,0,1,8.89,4.14c1.29,1.32,11.77-11.85,19,.23,0,0,8.26-5.69,12.76-4.8,0,0,2.9-11.95-26.28-38.52,11.94,8.29,35.18,19.66,58.24,4.14C285.62,357.5,295,355.48,292.33,309Z"/>
		<path class="bone-light" d="M157.6,373.53s-7.48,29.47-3,28.79a40.93,40.93,0,0,0,5.38-1s-10.86,6.68-8.85-5.91C153,384,156.12,373,157.6,373.53Z"/>
		<path class="bone-light" d="M90.62,390.5S55.12,380,63.12,330c.8-5-12-6-12,1,0,12.6-9,52,35.63,61.29C86.75,392.29,92.12,394,90.62,390.5Z"/>
		<path class="bone-dark" d="M299.12,208c-24-34-25,56-20,59,27.45,16.47,26,79,26,79,0,2.59,9.66,9.71,16.92,12.95,4.08-18.95.08-92.95-3.42-113.45C313.12,228,299.12,208,299.12,208Z"/>
	</g>
</svg>
