{
	"doHeading": "What I do",
	"do": [
		{
			"description": "Web developer offering custom <a href=\"https://wordpress.org/\" rel=\"nofollow\">WordPress</a> themes, blocks, and plugins"
		},
		{
			"description": "Troubleshooting issues involving HTML, CSS, JavaScript, and PHP"
		},
		{
			"description": "Performance optimisation and technical SEO for improved organic placement in Google search"
		}
	],
	"doNotHeading": "I can’t help if&hellip;",
	"doNot": [
		{
			"description": "You want to create a website using a visual page builder tool like Divi, Elementor, WP Bakery, Beaver Builder, Oxygen, or similar"
		},
		{
			"description": "You’re starting a project with a pre-made theme from somewhere like Envato or Themeforest"
		},
		{
			"description": "You have a wordpress.com subscription website (<a href=\"https://kinsta.com/knowledgebase/what-is-wordpress/#whats-the-difference-between-wordpressorg-and-wordpresscom\">read about the difference</a> between wordpress.org and wordpress.com)"
		},
		{
			"description": "You’d like to build a Google AMP website (honestly, please don’t do this&hellip;)"
		},
		{
			"description": "You need help with social media platforms or Google Adwords"
		},
		{
			"description": "You need a logo designed"
		},
		{
			"description": "You need graphic design for print"
		},
		{
			"description": "You’re seeking general IT support"
		}
	]
}